emoji,joy_1,joy_2,joy_3,heart_1,heart_2,heart_3,sunglass_1,sunglass_2,party_1,party_2,party_3,horrified_1,horrified_2,horrified_3,angry_1,angry_2,angry_3,thinking_1,thinking_2,thinking_3,kiss_1,kiss_2,kiss_3,kiss_4,kiss_5,cry_1,cry_2,cry_3,cry_4,sleep_1,sleep_2
joy,3,5,1,,,,,,,,,,,,,,,,,,,,,,,,,,,,
heart,,,,5,3,5,,,,,,,,,,,,,,,,,,,,,,,,,
sunglass,,,,,,,6,3,,,,,,,,,,,,,,,,,,,,,,,
party,,,,,,,,,1,3,6,,,,,,,,,,,,,,,,,,,,
horrified,,,,,,,,,,,,5,6,6,,,,,,,,,,,,,,,,,
angry,,,,,,,,,,,,,,,6,4,4,,,,,,,,,,,,,,
thinking,,,,,,,,,,,,,,,,,,6,6,6,,,,,,,,,,,
kiss,,,,,,,,,,,,,,,,,,,,,6,4,3,3,6,,,,,,
cry,,,,,,,,,,,,,,,,,,,,,,,,,,1,2,3,6,,
sleep,,,,,,,,,,,,,,,,,,,,,,,,,,,,,,6,4